#FIG 3.2
Landscape
Center
Inches
Letter  
100.00
Single
-2
1200 2
0 32 #c6b797
0 33 #eff8ff
0 34 #dccba6
0 35 #404040
0 36 #808080
0 37 #c0c0c0
0 38 #e0e0e0
0 39 #8e8f8e
0 40 #aaaaaa
0 41 #555555
0 42 #bebebe
0 43 #515151
0 44 #e7e3e7
0 45 #000049
0 46 #797979
0 47 #303430
0 48 #414141
0 49 #c7b696
0 50 #8e8e8e
0 51 #414541
0 52 #8e8e8e
0 53 #909090
0 54 #e6e4ce
0 55 #9b9b9b
0 56 #ce9100
0 57 #f762aa
0 58 #7070ff
0 59 #5f5f5f
6 0 -75 5475 2775
# D-type flipflop
6 2025 -75 3375 1275
2 1 0 3 0 7 50 0 -1 0.000 0 0 7 0 0 2
	 2100 300 2400 300
2 1 0 3 0 7 50 0 -1 0.000 0 0 7 0 0 2
	 2100 900 2400 900
2 1 0 3 0 7 50 0 -1 0.000 0 0 7 0 0 2
	 2400 825 2475 900
2 1 0 3 0 7 50 0 -1 0.000 0 0 7 0 0 2
	 2475 900 2400 975
2 1 0 3 0 7 50 0 -1 0.000 0 0 7 0 0 2
	 3000 300 3300 300
2 2 0 3 0 7 52 0 -1 0.000 0 0 7 0 0 5
	 2400 0 3000 0 3000 1200 2400 1200 2400 0
4 0 0 50 0 0 12 0.0000 4 165 135 2775 375 Q\001
4 0 0 50 0 0 12 0.0000 4 135 135 2475 375 D\001
-6
# D-type flipflop
6 525 -75 1875 1275
2 1 0 3 0 7 50 0 -1 0.000 0 0 7 0 0 2
	 600 300 900 300
2 1 0 3 0 7 50 0 -1 0.000 0 0 7 0 0 2
	 600 900 900 900
2 1 0 3 0 7 50 0 -1 0.000 0 0 7 0 0 2
	 900 825 975 900
2 1 0 3 0 7 50 0 -1 0.000 0 0 7 0 0 2
	 975 900 900 975
2 1 0 3 0 7 50 0 -1 0.000 0 0 7 0 0 2
	 1500 300 1800 300
2 2 0 3 0 7 52 0 -1 0.000 0 0 7 0 0 5
	 900 0 1500 0 1500 1200 900 1200 900 0
4 0 0 50 0 0 12 0.0000 4 165 135 1275 375 Q\001
4 0 0 50 0 0 12 0.0000 4 135 135 975 375 D\001
-6
# 2-input XOR gate
6 1950 2025 3375 2775
5 1 0 3 0 7 50 0 -1 0.000 0 1 0 0 3300.000 2400.000 3075 2100 2925 2400 3075 2700
5 1 0 3 0 7 50 0 -1 0.000 0 1 0 0 3450.000 2400.000 3225 2100 3075 2400 3225 2700
5 1 0 3 0 7 50 0 -1 0.000 0 1 0 0 2899.995 2749.995 3075 2100 2550 2175 2325 2400
5 1 0 3 0 7 50 0 -1 0.000 0 0 0 0 2899.995 2050.005 3075 2700 2550 2625 2325 2400
2 1 0 3 0 7 50 0 -1 0.000 0 0 7 0 0 2
	 3300 2550 2965 2550
2 1 0 3 0 7 50 0 -1 0.000 0 0 7 0 0 2
	 3300 2250 2965 2250
2 1 0 3 0 7 50 0 -1 0.000 0 0 7 0 0 2
	 2325 2400 2025 2400
-6
# D-type flipflop
6 3675 -75 5025 1275
2 1 0 3 0 7 50 0 -1 0.000 0 0 7 0 0 2
	 3750 300 4050 300
2 1 0 3 0 7 50 0 -1 0.000 0 0 7 0 0 2
	 3750 900 4050 900
2 1 0 3 0 7 50 0 -1 0.000 0 0 7 0 0 2
	 4050 825 4125 900
2 1 0 3 0 7 50 0 -1 0.000 0 0 7 0 0 2
	 4125 900 4050 975
2 1 0 3 0 7 50 0 -1 0.000 0 0 7 0 0 2
	 4650 300 4950 300
2 2 0 3 0 7 52 0 -1 0.000 0 0 7 0 0 5
	 4050 0 4650 0 4650 1200 4050 1200 4050 0
4 0 0 50 0 0 12 0.0000 4 165 135 4425 375 Q\001
4 0 0 50 0 0 12 0.0000 4 135 135 4125 375 D\001
-6
2 1 0 3 0 7 50 0 -1 0.000 0 0 -1 0 0 4
	 2025 2400 75 2400 75 300 600 300
2 1 0 3 0 7 50 0 -1 0.000 0 0 -1 0 0 2
	 1800 300 2100 300
2 1 0 3 0 7 50 0 -1 0.000 0 0 -1 0 0 2
	 3225 300 3825 300
2 1 0 3 0 7 50 0 -1 0.000 0 0 -1 0 0 4
	 4950 300 5400 300 5400 2550 3300 2550
2 1 0 3 0 7 50 0 -1 0.000 0 0 -1 0 0 3
	 3450 300 3450 2250 3300 2250
4 0 0 50 0 0 14 0.0000 4 150 315 900 1425 bit2\001
4 0 0 50 0 0 14 0.0000 4 150 315 2400 1425 bit1\001
4 0 0 50 0 0 14 0.0000 4 150 315 4050 1425 bit0\001
-6
1 3 0 1 0 0 50 0 20 0.000 1 0.0000 3450 300 75 75 3450 300 3450 375
