#FIG 3.2
Landscape
Center
Inches
Letter  
100.00
Single
-2
1200 2
6 675 1050 2925 4200
2 2 0 3 0 7 50 0 -1 0.000 0 0 -1 0 0 5
	 750 1125 2850 1125 2850 1500 750 1500 750 1125
2 2 0 3 0 7 50 0 -1 0.000 0 0 -1 0 0 5
	 750 1500 2850 1500 2850 1875 750 1875 750 1500
2 2 0 3 0 7 50 0 -1 0.000 0 0 -1 0 0 5
	 750 1875 2850 1875 2850 2250 750 2250 750 1875
2 2 0 3 0 7 50 0 -1 0.000 0 0 -1 0 0 5
	 750 2250 2850 2250 2850 2625 750 2625 750 2250
2 2 0 3 0 7 50 0 -1 0.000 0 0 -1 0 0 5
	 750 2625 2850 2625 2850 3000 750 3000 750 2625
2 2 0 3 0 7 50 0 -1 0.000 0 0 -1 0 0 5
	 750 3000 2850 3000 2850 3375 750 3375 750 3000
2 2 0 3 0 7 50 0 -1 0.000 0 0 -1 0 0 5
	 750 3375 2850 3375 2850 3750 750 3750 750 3375
2 2 0 3 0 7 50 0 -1 0.000 0 0 -1 0 0 5
	 750 3750 2850 3750 2850 4125 750 4125 750 3750
-6
6 5100 1200 6750 4050
2 1 0 3 0 7 50 0 -1 0.000 0 0 -1 1 0 2
	1 1 3.00 120.00 120.00
	 5625 1275 6675 1275
2 1 0 3 0 7 50 0 -1 0.000 0 0 -1 1 0 2
	1 1 3.00 120.00 120.00
	 5625 1650 6675 1650
2 1 0 3 0 7 50 0 -1 0.000 0 0 -1 1 0 2
	1 1 3.00 120.00 120.00
	 5625 2025 6675 2025
2 1 0 3 0 7 50 0 -1 0.000 0 0 -1 1 0 2
	1 1 3.00 120.00 120.00
	 5625 2400 6675 2400
2 1 0 3 0 7 50 0 -1 0.000 0 0 -1 1 0 2
	1 1 3.00 120.00 120.00
	 5625 3900 6675 3900
2 1 0 3 0 7 50 0 -1 0.000 0 0 -1 1 0 2
	1 1 3.00 120.00 120.00
	 5625 3525 6675 3525
2 1 0 3 0 7 50 0 -1 0.000 0 0 -1 1 0 2
	1 1 3.00 120.00 120.00
	 5625 3150 6675 3150
2 1 0 3 0 7 50 0 -1 0.000 0 0 -1 1 0 2
	1 1 3.00 120.00 120.00
	 5625 2775 6675 2775
4 0 0 50 0 0 14 0.0000 4 195 525 5100 1350 out[0]\001
4 0 0 50 0 0 14 0.0000 4 195 525 5100 1725 out[1]\001
4 0 0 50 0 0 14 0.0000 4 195 525 5100 2100 out[2]\001
4 0 0 50 0 0 14 0.0000 4 195 525 5100 2475 out[3]\001
4 0 0 50 0 0 14 0.0000 4 195 525 5100 2850 out[4]\001
4 0 0 50 0 0 14 0.0000 4 195 525 5100 3225 out[5]\001
4 0 0 50 0 0 14 0.0000 4 195 525 5100 3600 out[6]\001
4 0 0 50 0 0 14 0.0000 4 195 525 5100 3975 out[7]\001
-6
6 3975 1200 4425 4050
4 0 0 50 0 0 14 0.0000 4 195 405 3975 1725 in[1]\001
4 0 0 50 0 0 14 0.0000 4 195 405 3975 2100 in[2]\001
4 0 0 50 0 0 14 0.0000 4 195 405 3975 1350 in[0]\001
4 0 0 50 0 0 14 0.0000 4 195 405 3975 2475 in[3]\001
4 0 0 50 0 0 14 0.0000 4 195 405 3975 2850 in[4]\001
4 0 0 50 0 0 14 0.0000 4 195 405 3975 3225 in[5]\001
4 0 0 50 0 0 14 0.0000 4 195 405 3975 3600 in[6]\001
4 0 0 50 0 0 14 0.0000 4 195 405 3975 3975 in[7]\001
-6
6 6750 1200 7200 4050
4 0 0 50 0 0 14 0.0000 4 195 405 6750 1725 in[1]\001
4 0 0 50 0 0 14 0.0000 4 195 405 6750 2100 in[2]\001
4 0 0 50 0 0 14 0.0000 4 195 405 6750 1350 in[0]\001
4 0 0 50 0 0 14 0.0000 4 195 405 6750 2475 in[3]\001
4 0 0 50 0 0 14 0.0000 4 195 405 6750 2850 in[4]\001
4 0 0 50 0 0 14 0.0000 4 195 405 6750 3225 in[5]\001
4 0 0 50 0 0 14 0.0000 4 195 405 6750 3600 in[6]\001
4 0 0 50 0 0 14 0.0000 4 195 405 6750 3975 in[7]\001
-6
6 975 5475 4125 7725
2 2 0 3 0 7 50 0 -1 0.000 0 0 -1 0 0 5
	 1050 5550 4050 5550 4050 7650 1050 7650 1050 5550
2 2 0 3 0 7 50 0 -1 0.000 0 0 -1 0 0 5
	 1050 6825 3900 6825 3900 7200 1050 7200 1050 6825
2 2 0 3 0 7 50 0 -1 0.000 0 0 -1 0 0 5
	 1050 6450 3900 6450 3900 6825 1050 6825 1050 6450
4 0 0 50 0 0 14 0.0000 4 195 2340 1275 6750 structadded op1_ready flag\001
4 0 0 50 0 0 14 0.0000 4 195 2340 1275 7125 structadded op1_ready flag\001
4 0 0 50 0 0 14 0.0000 4 195 1530 1125 7575 dynamic identifier\001
-6
2 1 0 3 0 7 50 0 -1 0.000 0 0 -1 1 0 2
	1 1 3.00 120.00 120.00
	 1725 525 1725 1125
2 2 0 3 0 7 50 0 -1 0.000 0 0 -1 0 0 5
	 3900 1125 5625 1125 5625 4125 3900 4125 3900 1125
2 1 0 3 0 7 50 0 -1 0.000 0 0 -1 1 0 2
	1 1 3.00 120.00 120.00
	 4725 525 4725 1125
2 1 0 3 0 7 50 0 -1 0.000 0 0 -1 1 0 2
	1 1 3.00 120.00 120.00
	 2850 1275 3900 1275
2 1 0 3 0 7 50 0 -1 0.000 0 0 -1 1 0 2
	1 1 3.00 120.00 120.00
	 2850 1650 3900 1650
2 1 0 3 0 7 50 0 -1 0.000 0 0 -1 1 0 2
	1 1 3.00 120.00 120.00
	 2850 2025 3900 2025
2 1 0 3 0 7 50 0 -1 0.000 0 0 -1 1 0 2
	1 1 3.00 120.00 120.00
	 2850 2400 3900 2400
2 1 0 3 0 7 50 0 -1 0.000 0 0 -1 1 0 2
	1 1 3.00 120.00 120.00
	 2850 3900 3900 3900
2 1 0 3 0 7 50 0 -1 0.000 0 0 -1 1 0 2
	1 1 3.00 120.00 120.00
	 2850 3525 3900 3525
2 1 0 3 0 7 50 0 -1 0.000 0 0 -1 1 0 2
	1 1 3.00 120.00 120.00
	 2850 3150 3900 3150
2 1 0 3 0 7 50 0 -1 0.000 0 0 -1 1 0 2
	1 1 3.00 120.00 120.00
	 2850 2775 3900 2775
2 2 0 3 0 7 50 0 -1 0.000 0 0 -1 0 0 5
	 6675 1125 8100 1125 8100 4050 6675 4050 6675 1125
2 1 0 3 0 7 50 0 -1 0.000 0 0 -1 1 0 2
	1 1 3.00 120.00 120.00
	 7200 4050 7200 4650
2 1 0 3 0 7 50 0 -1 0.000 0 0 -1 1 0 2
	1 1 3.00 120.00 120.00
	 7500 4050 7500 4650
2 2 1 3 0 7 50 0 -1 8.000 0 0 -1 0 0 5
	 750 4875 6150 4875 6150 7950 750 7950 750 4875
2 1 0 2 0 7 50 0 -1 0.000 0 0 -1 1 0 2
	3 1 2.00 120.00 240.00
	 2400 5925 1800 3150
2 1 0 2 0 7 50 0 -1 0.000 0 0 -1 1 0 3
	2 1 2.00 120.00 240.00
	 4875 3750 4875 6675 3900 6675
4 0 0 50 0 0 18 1.5708 4 255 1440 4800 3375 gate instance\001
4 0 0 50 0 0 18 1.5708 4 255 1860 675 3525 mqueue instance\001
4 0 0 50 0 0 18 1.5708 4 195 1740 7425 3300 arbiter instance\001
4 0 0 50 0 0 14 0.0000 4 195 2040 3750 375 CDB (gate.control port)\001
4 0 0 50 0 0 14 0.0000 4 195 2490 600 375 Instructions (mqueue.in port)\001
4 0 0 50 0 0 14 0.0000 4 195 525 2325 1350 out[0]\001
4 0 0 50 0 0 14 0.0000 4 195 525 2325 1725 out[1]\001
4 0 0 50 0 0 14 0.0000 4 195 525 2325 2100 out[2]\001
4 0 0 50 0 0 14 0.0000 4 195 525 2325 2475 out[3]\001
4 0 0 50 0 0 14 0.0000 4 195 525 2325 2850 out[4]\001
4 0 0 50 0 0 14 0.0000 4 195 525 2325 3225 out[5]\001
4 0 0 50 0 0 14 0.0000 4 195 525 2325 3600 out[6]\001
4 0 0 50 0 0 14 0.0000 4 195 525 2325 3975 out[7]\001
4 0 0 50 0 0 14 0.0000 4 195 1530 6750 4950 ready instructions\001
4 0 0 50 0 0 18 0.0000 4 255 4590 750 8250 Simulator Memory (host machine RAM)\001
4 0 0 50 0 0 14 1.5708 4 195 1575 5100 6600 gate_control write\001
