--> N toMem 1
--> N n1-21  0
--> N nP1 	0
--> M Mem toMem
--> C L2.1	1 1 32 n1-21	toMem	NoneWB	WrEarly WrAlloc 
--> I L2.1  1 Snoop	2 noCOWI noSIWAI
--> C L1.1	1 1 32 nP1	n1-21	MSI	WrEarly
--> I L1.1  1 Snoop	2 noCOWI noSIWAI
--> I L1.1  0 Snoop	2 noCOWI noSIWAI
--> P P1 	nP1 

--> R P1 0 4	# get into caches
--> Q

==== Time 0 ====
==== Time 1 ====
L1.1 received RdReq[0] for L1.1(0) from P1(1) with addr 0/0, len 4 on upper int.
[0]   L1.1 RdReq : 4 0 0 : {}ReadState(f=1){0/0} 1
[0]   L1.1 read line state @none: 00
[0]   L1.1 RdReq : -1 12 0 : {}WriteState(Line((&37777777777)|22220000)){1/1} {1}Send:RdReq{2/1} 1
[0]   L1.1 write line state @none: 022220000
==== Time 2 ====
L2.1 received RdReq[0] for L2.1(0) from L1.1(1) with addr 0/0, len 32 on upper int.
[0]   L2.1 RdReq : 4 0 0 : {}ReadState(f=1){0/0} 1
[0]   L2.1 read line state @none: 00
[0]   L2.1 RdReq : -1 12 0 : {}WriteState(Line((&37777777777)|22220000)){1/1} {1}Send:RdReq{2/1} 1
[0]   L2.1 write line state @none: 022220000
==== Time 3 ====
Mem received RdReq[0] for Mem(0) from L2.1(1) with addr 0/0, len 32
==== Time 4 ====
L2.1 received RdAck.OK[0] for L2.1(1) from Mem(0) with addr 0/0, len 32 on lower int.
[0]   L2.1 RdReq : -1 14 -1 : {}ChooseVictim{3/1} 1
[0]   L2.1 chose victim @0: 0x0 (00)
[0]   L2.1 RdReq : -1 -1003 -1 : {}WriteData-2{4/1} {}WriteState(Tag){5/1} {}WriteState(Line((&37777777400)|1)){6/1} {5,6}None{7/1} {4,7}WriteState(Line((&37755557777)|0)){8/1} {}Send:RdAck.OK{9/1} 0
[0]   L2.1 write line state @0: 022220001
[0]   L2.1 write line state @0: 01
L2.1 finished [0]
==== Time 5 ====
L1.1 received RdAck.OK[0] for L1.1(1) from L2.1(0) with addr 0/0, len 32 on lower int.
[0]   L1.1 RdReq : -1 14 -1 : {}ChooseVictim{3/1} 1
[0]   L1.1 chose victim @0: 0x0 (00)
[0]   L1.1 RdReq : -1 -1003 -1 : {}WriteData-2{4/1} {}WriteState(Tag){5/1} {}WriteState(Line((&37777777400)|4)){6/1} {5,6}None{7/1} {4,7}WriteState(Line((&37755557777)|0)){8/1} {}Send:RdAck.OK{9/1} 0
[0]   L1.1 write line state @0: 022220004
[0]   L1.1 write line state @0: 04
L1.1 finished [0]
==== Time 6 ====
P1 received RdAck.OK[0] for P1(1) from L1.1(0) with addr 0/0, len 4
--> O ======================================================================
--> O ====================== Test hits =====================================
--> O ======================================================================

--> R P1 0 4 noOwn noCoh noCache Alloc
--> Q

==== Time 7 ====
==== Time 8 ====
L1.1 received RdReq.NCo.NCa[1] for L1.1(0) from P1(1) with addr 0/0, len 4 on upper int.
[1]   L1.1 RdReq.NCo.NCa : -1 6 0 : {}Send:RdReq.NCo.NCa{0/1} 1
==== Time 9 ====
L2.1 received RdReq.NCo.NCa[1] for L2.1(0) from L1.1(1) with addr 0/0, len 4 on upper int.
[1]   L2.1 RdReq.NCo.NCa : -1 6 0 : {}Send:RdReq.NCo.NCa{0/1} 1
==== Time 10 ====
Mem received RdReq.NCo.NCa[1] for Mem(0) from L2.1(1) with addr 0/0, len 4
==== Time 11 ====
L2.1 received RdAck.OK[1] for L2.1(1) from Mem(0) with addr 0/0, len 4 on lower int.
[1]   L2.1 RdReq.NCo.NCa : -1 -1 -1 : {}Send:RdAck.OK{1/1} 0
L2.1 finished [1]
==== Time 12 ====
L1.1 received RdAck.OK[1] for L1.1(1) from L2.1(0) with addr 0/0, len 4 on lower int.
[1]   L1.1 RdReq.NCo.NCa : -1 -1 -1 : {}Send:RdAck.OK{1/1} 0
L1.1 finished [1]
==== Time 13 ====
P1 received RdAck.OK[1] for P1(1) from L1.1(0) with addr 0/0, len 4

--> R P1 0 4 noOwn noCoh noCache noAlloc
--> Q

==== Time 14 ====
==== Time 15 ====
L1.1 received RdReq.NCo.NCa[2] for L1.1(0) from P1(1) with addr 0/0, len 4 on upper int.
[2]   L1.1 RdReq.NCo.NCa : -1 6 0 : {}Send:RdReq.NCo.NCa{0/1} 1
==== Time 16 ====
L2.1 received RdReq.NCo.NCa[2] for L2.1(0) from L1.1(1) with addr 0/0, len 4 on upper int.
[2]   L2.1 RdReq.NCo.NCa : -1 6 0 : {}Send:RdReq.NCo.NCa{0/1} 1
==== Time 17 ====
Mem received RdReq.NCo.NCa[2] for Mem(0) from L2.1(1) with addr 0/0, len 4
==== Time 18 ====
L2.1 received RdAck.OK[2] for L2.1(1) from Mem(0) with addr 0/0, len 4 on lower int.
[2]   L2.1 RdReq.NCo.NCa : -1 -1 -1 : {}Send:RdAck.OK{1/1} 0
L2.1 finished [2]
==== Time 19 ====
L1.1 received RdAck.OK[2] for L1.1(1) from L2.1(0) with addr 0/0, len 4 on lower int.
[2]   L1.1 RdReq.NCo.NCa : -1 -1 -1 : {}Send:RdAck.OK{1/1} 0
L1.1 finished [2]
==== Time 20 ====
P1 received RdAck.OK[2] for P1(1) from L1.1(0) with addr 0/0, len 4

--> R P1 0 4 noOwn noCoh Cache Alloc
--> Q

==== Time 21 ====
==== Time 22 ====
L1.1 received RdReq.NCo[3] for L1.1(0) from P1(1) with addr 0/0, len 4 on upper int.
[3]   L1.1 RdReq.NCo : 4 0 0 : {}ReadState(f=1){0/0} 1
[3]   L1.1 read line state @0: 04
[3]   L1.1 RdReq.NCo : -1 7 0 : {}ReadData{1/1} 1
[3]   L1.1 RdReq.NCo : -1 -1 0 : {}Send:RdAck.OK{2/1} 0
L1.1 finished [3]
==== Time 23 ====
P1 received RdAck.OK[3] for P1(1) from L1.1(0) with addr 0/0, len 4

--> R P1 0 4 noOwn noCoh Cache noAlloc
--> Q

==== Time 24 ====
==== Time 25 ====
L1.1 received RdReq.NCo.NA[4] for L1.1(0) from P1(1) with addr 0/0, len 4 on upper int.
[4]   L1.1 RdReq.NCo.NA : 4 0 0 : {}ReadState(f=1){0/0} 1
[4]   L1.1 read line state @0: 04
[4]   L1.1 RdReq.NCo.NA : -1 7 0 : {}ReadData{1/1} 1
[4]   L1.1 RdReq.NCo.NA : -1 -1 0 : {}Send:RdAck.OK{2/1} 0
L1.1 finished [4]
==== Time 26 ====
P1 received RdAck.OK[4] for P1(1) from L1.1(0) with addr 0/0, len 4

--> R P1 0 4 noOwn Coh noCache Alloc
--> Q

==== Time 27 ====
==== Time 28 ====
L1.1 received RdReq.NCa[5] for L1.1(0) from P1(1) with addr 0/0, len 4 on upper int.
[5]   L1.1 RdReq.NCa : -1 6 0 : {}Send:RdReq.NCa{0/1} 1
==== Time 29 ====
L2.1 received RdReq.NCa[5] for L2.1(0) from L1.1(1) with addr 0/0, len 4 on upper int.
[3]   L2.1 RdReq.NCa : -1 6 0 : {}Send:RdReq.NCa{0/1} 1
==== Time 30 ====
Mem received RdReq.NCa[3] for Mem(0) from L2.1(1) with addr 0/0, len 4
==== Time 31 ====
L2.1 received RdAck.OK[3] for L2.1(1) from Mem(0) with addr 0/0, len 4 on lower int.
[3]   L2.1 RdReq.NCa : -1 -1 -1 : {}Send:RdAck.OK{1/1} 0
L2.1 finished [3]
==== Time 32 ====
L1.1 received RdAck.OK[5] for L1.1(1) from L2.1(0) with addr 0/0, len 4 on lower int.
[5]   L1.1 RdReq.NCa : -1 -1 -1 : {}Send:RdAck.OK{1/1} 0
L1.1 finished [5]
==== Time 33 ====
P1 received RdAck.OK[5] for P1(1) from L1.1(0) with addr 0/0, len 4

--> R P1 0 4 noOwn Coh noCache noAlloc
--> Q

==== Time 34 ====
==== Time 35 ====
L1.1 received RdReq.NA.NCa[6] for L1.1(0) from P1(1) with addr 0/0, len 4 on upper int.
[6]   L1.1 RdReq.NA.NCa : -1 6 0 : {}Send:RdReq.NA.NCa{0/1} 1
==== Time 36 ====
L2.1 received RdReq.NA.NCa[6] for L2.1(0) from L1.1(1) with addr 0/0, len 4 on upper int.
[4]   L2.1 RdReq.NA.NCa : -1 6 0 : {}Send:RdReq.NA.NCa{0/1} 1
==== Time 37 ====
Mem received RdReq.NA.NCa[4] for Mem(0) from L2.1(1) with addr 0/0, len 4
==== Time 38 ====
L2.1 received RdAck.OK[4] for L2.1(1) from Mem(0) with addr 0/0, len 4 on lower int.
[4]   L2.1 RdReq.NA.NCa : -1 -1 -1 : {}Send:RdAck.OK{1/1} 0
L2.1 finished [4]
==== Time 39 ====
L1.1 received RdAck.OK[6] for L1.1(1) from L2.1(0) with addr 0/0, len 4 on lower int.
[6]   L1.1 RdReq.NA.NCa : -1 -1 -1 : {}Send:RdAck.OK{1/1} 0
L1.1 finished [6]
==== Time 40 ====
P1 received RdAck.OK[6] for P1(1) from L1.1(0) with addr 0/0, len 4

--> R P1 0 4 noOwn Coh Cache Alloc
--> Q

==== Time 41 ====
==== Time 42 ====
L1.1 received RdReq[7] for L1.1(0) from P1(1) with addr 0/0, len 4 on upper int.
[7]   L1.1 RdReq : 4 0 0 : {}ReadState(f=1){0/0} 1
[7]   L1.1 read line state @0: 04
[7]   L1.1 RdReq : -1 7 0 : {}ReadData{1/1} 1
[7]   L1.1 RdReq : -1 -1 0 : {}Send:RdAck.OK{2/1} 0
L1.1 finished [7]
==== Time 43 ====
P1 received RdAck.OK[7] for P1(1) from L1.1(0) with addr 0/0, len 4

--> R P1 0 4 noOwn Coh Cache noAlloc
--> Q

==== Time 44 ====
==== Time 45 ====
L1.1 received RdReq.NA[8] for L1.1(0) from P1(1) with addr 0/0, len 4 on upper int.
[8]   L1.1 RdReq.NA : 4 0 0 : {}ReadState(f=1){0/0} 1
[8]   L1.1 read line state @0: 04
[8]   L1.1 RdReq.NA : -1 7 0 : {}ReadData{1/1} 1
[8]   L1.1 RdReq.NA : -1 -1 0 : {}Send:RdAck.OK{2/1} 0
L1.1 finished [8]
==== Time 46 ====
P1 received RdAck.OK[8] for P1(1) from L1.1(0) with addr 0/0, len 4

--> R P1 0 4 Own noCoh noCache Alloc
--> Q

==== Time 47 ====
==== Time 48 ====
L1.1 received RdReq.ToOwn.NCo.NCa[9] for L1.1(0) from P1(1) with addr 0/0, len 4 on upper int.
[9]   L1.1 RdReq.ToOwn.NCo.NCa : -1 6 -1 : {}Send:RdReq.ToOwn.NCo.NCa{0/2} 1
==== Time 49 ====
L2.1 received RdReq.ToOwn.NCo.NCa[9] for L2.1(0) from L1.1(1) with addr 0/0, len 4 on upper int.
[5]   L2.1 RdReq.ToOwn.NCo.NCa : -1 6 0 : {}Send:RdReq.ToOwn.NCo.NCa{0/1} 1
==== Time 50 ====
Mem received RdReq.ToOwn.NCo.NCa[5] for Mem(0) from L2.1(1) with addr 0/0, len 4
==== Time 51 ====
L2.1 received RdAck.OK[5] for L2.1(1) from Mem(0) with addr 0/0, len 4 on lower int.
[5]   L2.1 RdReq.ToOwn.NCo.NCa : -1 -1 -1 : {}Send:RdAck.OK{1/1} 0
L2.1 finished [5]
==== Time 52 ====
L1.1 received RdAck.OK[9] for L1.1(1) from L2.1(0) with addr 0/0, len 4 on lower int.
[9]   L1.1 RdReq.ToOwn.NCo.NCa : -1 -1 -1 : {}Send:RdAck.OK{1/1} 0
L1.1 finished [9]
==== Time 53 ====
P1 received RdAck.OK[9] for P1(1) from L1.1(0) with addr 0/0, len 4

--> R P1 0 4 Own noCoh noCache noAlloc
--> Q

==== Time 54 ====
==== Time 55 ====
L1.1 received RdReq.ToOwn.NCo.NCa[10] for L1.1(0) from P1(1) with addr 0/0, len 4 on upper int.
[10]   L1.1 RdReq.ToOwn.NCo.NCa : -1 6 -1 : {}Send:RdReq.ToOwn.NCo.NCa{0/2} 1
==== Time 56 ====
L2.1 received RdReq.ToOwn.NCo.NCa[10] for L2.1(0) from L1.1(1) with addr 0/0, len 4 on upper int.
[6]   L2.1 RdReq.ToOwn.NCo.NCa : -1 6 0 : {}Send:RdReq.ToOwn.NCo.NCa{0/1} 1
==== Time 57 ====
Mem received RdReq.ToOwn.NCo.NCa[6] for Mem(0) from L2.1(1) with addr 0/0, len 4
==== Time 58 ====
L2.1 received RdAck.OK[6] for L2.1(1) from Mem(0) with addr 0/0, len 4 on lower int.
[6]   L2.1 RdReq.ToOwn.NCo.NCa : -1 -1 -1 : {}Send:RdAck.OK{1/1} 0
L2.1 finished [6]
==== Time 59 ====
L1.1 received RdAck.OK[10] for L1.1(1) from L2.1(0) with addr 0/0, len 4 on lower int.
[10]   L1.1 RdReq.ToOwn.NCo.NCa : -1 -1 -1 : {}Send:RdAck.OK{1/1} 0
L1.1 finished [10]
==== Time 60 ====
P1 received RdAck.OK[10] for P1(1) from L1.1(0) with addr 0/0, len 4

--> R P1 0 4 Own noCoh Cache Alloc
--> Q

==== Time 61 ====
==== Time 62 ====
L1.1 received RdReq.ToOwn.NCo[11] for L1.1(0) from P1(1) with addr 0/0, len 4 on upper int.
[11]   L1.1 RdReq.ToOwn.NCo : 4 0 0 : {}ReadState(f=1){0/0} 1
[11]   L1.1 read line state @0: 04
TODO: upgrades for reads
[11]   L1.1 RdReq.ToOwn.NCo : -1 -1 0 : {}Send:RdAck.NACK{1/1} 0
L1.1 finished [11]
==== Time 63 ====
P1 received RdAck.NACK[11] for P1(1) from L1.1(0) with addr 0/0, len 4

--> R P1 0 4 Own noCoh Cache noAlloc
--> Q

==== Time 64 ====
==== Time 65 ====
L1.1 received RdReq.ToOwn.NCo.NA[12] for L1.1(0) from P1(1) with addr 0/0, len 4 on upper int.
[12]   L1.1 RdReq.ToOwn.NCo.NA : 4 0 0 : {}ReadState(f=1){0/0} 1
[12]   L1.1 read line state @0: 04
TODO: upgrades for reads
[12]   L1.1 RdReq.ToOwn.NCo.NA : -1 -1 0 : {}Send:RdAck.NACK{1/1} 0
L1.1 finished [12]
==== Time 66 ====
P1 received RdAck.NACK[12] for P1(1) from L1.1(0) with addr 0/0, len 4

--> R P1 0 4 Own Coh noCache Alloc
--> Q

==== Time 67 ====
==== Time 68 ====
L1.1 received RdReq.ToOwn.NCa[13] for L1.1(0) from P1(1) with addr 0/0, len 4 on upper int.
[13]   L1.1 RdReq.ToOwn.NCa : -1 6 -1 : {}Send:RdReq.ToOwn.NCa{0/2} 1
==== Time 69 ====
L2.1 received RdReq.ToOwn.NCa[13] for L2.1(0) from L1.1(1) with addr 0/0, len 4 on upper int.
[7]   L2.1 RdReq.ToOwn.NCa : -1 6 0 : {}Send:RdReq.ToOwn.NCa{0/1} 1
==== Time 70 ====
Mem received RdReq.ToOwn.NCa[7] for Mem(0) from L2.1(1) with addr 0/0, len 4
==== Time 71 ====
L2.1 received RdAck.OK[7] for L2.1(1) from Mem(0) with addr 0/0, len 4 on lower int.
[7]   L2.1 RdReq.ToOwn.NCa : -1 -1 -1 : {}Send:RdAck.OK{1/1} 0
L2.1 finished [7]
==== Time 72 ====
L1.1 received RdAck.OK[13] for L1.1(1) from L2.1(0) with addr 0/0, len 4 on lower int.
[13]   L1.1 RdReq.ToOwn.NCa : -1 -1 -1 : {}Send:RdAck.OK{1/1} 0
L1.1 finished [13]
==== Time 73 ====
P1 received RdAck.OK[13] for P1(1) from L1.1(0) with addr 0/0, len 4

--> R P1 0 4 Own Coh noCache noAlloc
--> Q

==== Time 74 ====
==== Time 75 ====
L1.1 received RdReq.ToOwn.NA.NCa[14] for L1.1(0) from P1(1) with addr 0/0, len 4 on upper int.
[14]   L1.1 RdReq.ToOwn.NA.NCa : -1 6 -1 : {}Send:RdReq.ToOwn.NA.NCa{0/2} 1
==== Time 76 ====
L2.1 received RdReq.ToOwn.NA.NCa[14] for L2.1(0) from L1.1(1) with addr 0/0, len 4 on upper int.
[8]   L2.1 RdReq.ToOwn.NA.NCa : -1 6 0 : {}Send:RdReq.ToOwn.NA.NCa{0/1} 1
==== Time 77 ====
Mem received RdReq.ToOwn.NA.NCa[8] for Mem(0) from L2.1(1) with addr 0/0, len 4
==== Time 78 ====
L2.1 received RdAck.OK[8] for L2.1(1) from Mem(0) with addr 0/0, len 4 on lower int.
[8]   L2.1 RdReq.ToOwn.NA.NCa : -1 -1 -1 : {}Send:RdAck.OK{1/1} 0
L2.1 finished [8]
==== Time 79 ====
L1.1 received RdAck.OK[14] for L1.1(1) from L2.1(0) with addr 0/0, len 4 on lower int.
[14]   L1.1 RdReq.ToOwn.NA.NCa : -1 -1 -1 : {}Send:RdAck.OK{1/1} 0
L1.1 finished [14]
==== Time 80 ====
P1 received RdAck.OK[14] for P1(1) from L1.1(0) with addr 0/0, len 4

--> R P1 0 4 Own Coh Cache Alloc
--> Q

==== Time 81 ====
==== Time 82 ====
L1.1 received RdReq.ToOwn[15] for L1.1(0) from P1(1) with addr 0/0, len 4 on upper int.
[15]   L1.1 RdReq.ToOwn : 4 0 0 : {}ReadState(f=1){0/0} 1
[15]   L1.1 read line state @0: 04
TODO: upgrades for reads
[15]   L1.1 RdReq.ToOwn : -1 -1 0 : {}Send:RdAck.NACK{1/1} 0
L1.1 finished [15]
==== Time 83 ====
P1 received RdAck.NACK[15] for P1(1) from L1.1(0) with addr 0/0, len 4

--> R P1 0 4 Own Coh Cache noAlloc
--> Q

==== Time 84 ====
==== Time 85 ====
L1.1 received RdReq.ToOwn.NA[16] for L1.1(0) from P1(1) with addr 0/0, len 4 on upper int.
[16]   L1.1 RdReq.ToOwn.NA : 4 0 0 : {}ReadState(f=1){0/0} 1
[16]   L1.1 read line state @0: 04
TODO: upgrades for reads
[16]   L1.1 RdReq.ToOwn.NA : -1 -1 0 : {}Send:RdAck.NACK{1/1} 0
L1.1 finished [16]
==== Time 86 ====
P1 received RdAck.NACK[16] for P1(1) from L1.1(0) with addr 0/0, len 4
--> O ======================================================================
--> O ====================== Test misses ===================================
--> O ======================================================================

--> R P1 20 4 noOwn noCoh noCache Alloc
--> Q

==== Time 87 ====
==== Time 88 ====
L1.1 received RdReq.NCo.NCa[17] for L1.1(0) from P1(1) with addr 20/20, len 4 on upper int.
[17]   L1.1 RdReq.NCo.NCa : -1 6 0 : {}Send:RdReq.NCo.NCa{0/1} 1
==== Time 89 ====
L2.1 received RdReq.NCo.NCa[17] for L2.1(0) from L1.1(1) with addr 20/20, len 4 on upper int.
[9]   L2.1 RdReq.NCo.NCa : -1 6 0 : {}Send:RdReq.NCo.NCa{0/1} 1
==== Time 90 ====
Mem received RdReq.NCo.NCa[9] for Mem(0) from L2.1(1) with addr 20/20, len 4
==== Time 91 ====
L2.1 received RdAck.OK[9] for L2.1(1) from Mem(0) with addr 20/20, len 4 on lower int.
[9]   L2.1 RdReq.NCo.NCa : -1 -1 -1 : {}Send:RdAck.OK{1/1} 0
L2.1 finished [9]
==== Time 92 ====
L1.1 received RdAck.OK[17] for L1.1(1) from L2.1(0) with addr 20/20, len 4 on lower int.
[17]   L1.1 RdReq.NCo.NCa : -1 -1 -1 : {}Send:RdAck.OK{1/1} 0
L1.1 finished [17]
==== Time 93 ====
P1 received RdAck.OK[17] for P1(1) from L1.1(0) with addr 20/20, len 4

--> R P1 40 4 noOwn noCoh noCache noAlloc
--> Q

==== Time 94 ====
==== Time 95 ====
L1.1 received RdReq.NCo.NCa[18] for L1.1(0) from P1(1) with addr 40/40, len 4 on upper int.
[18]   L1.1 RdReq.NCo.NCa : -1 6 0 : {}Send:RdReq.NCo.NCa{0/1} 1
==== Time 96 ====
L2.1 received RdReq.NCo.NCa[18] for L2.1(0) from L1.1(1) with addr 40/40, len 4 on upper int.
[10]   L2.1 RdReq.NCo.NCa : -1 6 0 : {}Send:RdReq.NCo.NCa{0/1} 1
==== Time 97 ====
Mem received RdReq.NCo.NCa[10] for Mem(0) from L2.1(1) with addr 40/40, len 4
==== Time 98 ====
L2.1 received RdAck.OK[10] for L2.1(1) from Mem(0) with addr 40/40, len 4 on lower int.
[10]   L2.1 RdReq.NCo.NCa : -1 -1 -1 : {}Send:RdAck.OK{1/1} 0
L2.1 finished [10]
==== Time 99 ====
L1.1 received RdAck.OK[18] for L1.1(1) from L2.1(0) with addr 40/40, len 4 on lower int.
[18]   L1.1 RdReq.NCo.NCa : -1 -1 -1 : {}Send:RdAck.OK{1/1} 0
L1.1 finished [18]
==== Time 100 ====
P1 received RdAck.OK[18] for P1(1) from L1.1(0) with addr 40/40, len 4

--> R P1 60 4 noOwn noCoh Cache Alloc
--> Q

==== Time 101 ====
==== Time 102 ====
L1.1 received RdReq.NCo[19] for L1.1(0) from P1(1) with addr 60/60, len 4 on upper int.
[19]   L1.1 RdReq.NCo : 4 0 0 : {}ReadState(f=1){0/0} 1
[19]   L1.1 read line state @none: 00
[19]   L1.1 RdReq.NCo : -1 12 0 : {}WriteState(Line((&37777777777)|22220000)){1/1} {1}Send:RdReq.NCo{2/1} 1
[19]   L1.1 write line state @none: 022220000
==== Time 103 ====
L2.1 received RdReq.NCo[19] for L2.1(0) from L1.1(1) with addr 60/60, len 32 on upper int.
[11]   L2.1 RdReq.NCo : 4 0 0 : {}ReadState(f=1){0/0} 1
[11]   L2.1 read line state @none: 00
[11]   L2.1 RdReq.NCo : -1 12 0 : {}WriteState(Line((&37777777777)|22220000)){1/1} {1}Send:RdReq.NCo{2/1} 1
[11]   L2.1 write line state @none: 022220000
==== Time 104 ====
Mem received RdReq.NCo[11] for Mem(0) from L2.1(1) with addr 60/60, len 32
==== Time 105 ====
L2.1 received RdAck.OK[11] for L2.1(1) from Mem(0) with addr 60/60, len 32 on lower int.
[11]   L2.1 RdReq.NCo : -1 14 -1 : {}ChooseVictim{3/1} 1
[11]   L2.1 chose victim @0: 0x0 (01)
[11]   L2.1 RdReq.NCo : -1 13 -1 : {}Notify(1,1,0){4/1} 1
[12]   L2.1 None : 1 11 0 : {}Send:InvalReq{0/0} 2
[11]   L2.1 RdReq.NCo : -1 13 -1 : 1
==== Time 106 ====
L1.1 received InvalReq[12] for L1.1(1) from L2.1(0) with addr 0/0, len 32 on lower int.
[20]   L1.1 InvalReq : 0 0 4 : {}ReadState(f=1){0/2} 1
[20]   L1.1 read line state @0: 04
[20]   L1.1 InvalReq : 1 17 -1 : {}WriteState(Line((&37777777777)|7777777000)){1/1} {1}CrossCheck{2/1} {}Send:InvalReq{3/0} 2
[20]   L1.1 write line state @0: 07777777004
==== Time 107 ====
P1 received InvalReq[20] for P1(1) from L1.1(0) with addr 0/0, len 32
==== Time 108 ====
L1.1 received InvalAck.OK[20] for L1.1(0) from P1(1) with addr 0/0, len 32 on upper int.
[20]   L1.1 InvalReq : -1 -1 -1 : {2}WriteState(Line((&37777777400)|0)){4/1} {4}WriteState(Line((&30000000777)|0)){5/1} {}Send:InvalAck.OK{6/1} 0
[20]   L1.1 write line state @0: 07777777000
[20]   L1.1 write line state @0: 00
L1.1 finished [20]
==== Time 109 ====
L2.1 received InvalAck.OK[12] for L2.1(0) from L1.1(1) with addr 0/0, len 32 on upper int.
[12]   L2.1 None : -1 19 0 : {}Notify(1,0,0){1/1} 1
[11]   L2.1 RdReq.NCo : -1 1 -1 : {}WriteData-2{5/1} {}Notify(1,1,1){6/1} 1
[11]   L2.1 RdReq.NCo : -1 1 -1 : 1
[12]   L2.1 None : -1 21 0 : {}Send:CastOutReq{2/1} 1
==== Time 110 ====
Mem received CastOutReq[12] for Mem(0) from L2.1(1) with addr 0/0, len 32
==== Time 111 ====
L2.1 received CastOutAck.OK[12] for L2.1(1) from Mem(0) with addr 0/0, len 32 on lower int.
[12]   L2.1 None : -1 -1 -1 : {}Notify(1,0,0){3/1} 0
[11]   L2.1 RdReq.NCo : -1 -1003 -1 : {}WriteState(Tag){7/1} {}WriteState(Line((&37777777400)|1)){8/1} {7,8}None{9/1} {5,9}WriteState(Line((&37755557777)|0)){10/1} {}Send:RdAck.OK{11/1} 0
[11]   L2.1 write line state @0: 022220001
[11]   L2.1 write line state @0: 01
L2.1 finished [11]
[12]   L2.1 None : -1 -1 -1 : 0
L2.1 finished [12]
==== Time 112 ====
L1.1 received RdAck.OK[19] for L1.1(1) from L2.1(0) with addr 60/60, len 32 on lower int.
[19]   L1.1 RdReq.NCo : -1 14 -1 : {}ChooseVictim{3/1} 1
[19]   L1.1 chose victim @0: 0x0 (00)
[19]   L1.1 RdReq.NCo : -1 -1003 -1 : {}WriteData-2{4/1} {}WriteState(Tag){5/1} {}WriteState(Line((&37777777400)|4)){6/1} {5,6}None{7/1} {4,7}WriteState(Line((&37755557777)|0)){8/1} {}Send:RdAck.OK{9/1} 0
[19]   L1.1 write line state @0: 022220004
[19]   L1.1 write line state @0: 04
L1.1 finished [19]
==== Time 113 ====
P1 received RdAck.OK[19] for P1(1) from L1.1(0) with addr 60/60, len 4

--> R P1 80 4 noOwn noCoh Cache noAlloc
--> Q

==== Time 114 ====
==== Time 115 ====
L1.1 received RdReq.NCo.NA[20] for L1.1(0) from P1(1) with addr 80/80, len 4 on upper int.
[21]   L1.1 RdReq.NCo.NA : 4 0 0 : {}ReadState(f=1){0/0} 1
[21]   L1.1 read line state @none: 00
[21]   L1.1 RdReq.NCo.NA : -1 6 0 : {}Send:RdReq.NCo.NA{1/1} 1
==== Time 116 ====
L2.1 received RdReq.NCo.NA[21] for L2.1(0) from L1.1(1) with addr 80/80, len 4 on upper int.
[13]   L2.1 RdReq.NCo.NA : 4 0 0 : {}ReadState(f=1){0/0} 1
[13]   L2.1 read line state @none: 00
[13]   L2.1 RdReq.NCo.NA : -1 6 0 : {}Send:RdReq.NCo.NA{1/1} 1
==== Time 117 ====
Mem received RdReq.NCo.NA[13] for Mem(0) from L2.1(1) with addr 80/80, len 4
==== Time 118 ====
L2.1 received RdAck.OK[13] for L2.1(1) from Mem(0) with addr 80/80, len 4 on lower int.
[13]   L2.1 RdReq.NCo.NA : -1 -1 -1 : {}Send:RdAck.OK{2/1} 0
L2.1 finished [13]
==== Time 119 ====
L1.1 received RdAck.OK[21] for L1.1(1) from L2.1(0) with addr 80/80, len 4 on lower int.
[21]   L1.1 RdReq.NCo.NA : -1 -1 -1 : {}Send:RdAck.OK{2/1} 0
L1.1 finished [21]
==== Time 120 ====
P1 received RdAck.OK[20] for P1(1) from L1.1(0) with addr 80/80, len 4

--> R P1 a0 4 noOwn Coh noCache Alloc
--> Q

==== Time 121 ====
==== Time 122 ====
L1.1 received RdReq.NCa[21] for L1.1(0) from P1(1) with addr a0/a0, len 4 on upper int.
[22]   L1.1 RdReq.NCa : -1 6 0 : {}Send:RdReq.NCa{0/1} 1
==== Time 123 ====
L2.1 received RdReq.NCa[22] for L2.1(0) from L1.1(1) with addr a0/a0, len 4 on upper int.
[14]   L2.1 RdReq.NCa : -1 6 0 : {}Send:RdReq.NCa{0/1} 1
==== Time 124 ====
Mem received RdReq.NCa[14] for Mem(0) from L2.1(1) with addr a0/a0, len 4
==== Time 125 ====
L2.1 received RdAck.OK[14] for L2.1(1) from Mem(0) with addr a0/a0, len 4 on lower int.
[14]   L2.1 RdReq.NCa : -1 -1 -1 : {}Send:RdAck.OK{1/1} 0
L2.1 finished [14]
==== Time 126 ====
L1.1 received RdAck.OK[22] for L1.1(1) from L2.1(0) with addr a0/a0, len 4 on lower int.
[22]   L1.1 RdReq.NCa : -1 -1 -1 : {}Send:RdAck.OK{1/1} 0
L1.1 finished [22]
==== Time 127 ====
P1 received RdAck.OK[21] for P1(1) from L1.1(0) with addr a0/a0, len 4

--> R P1 c0 4 noOwn Coh noCache noAlloc
--> Q

==== Time 128 ====
==== Time 129 ====
L1.1 received RdReq.NA.NCa[22] for L1.1(0) from P1(1) with addr c0/c0, len 4 on upper int.
[23]   L1.1 RdReq.NA.NCa : -1 6 0 : {}Send:RdReq.NA.NCa{0/1} 1
==== Time 130 ====
L2.1 received RdReq.NA.NCa[23] for L2.1(0) from L1.1(1) with addr c0/c0, len 4 on upper int.
[15]   L2.1 RdReq.NA.NCa : -1 6 0 : {}Send:RdReq.NA.NCa{0/1} 1
==== Time 131 ====
Mem received RdReq.NA.NCa[15] for Mem(0) from L2.1(1) with addr c0/c0, len 4
==== Time 132 ====
L2.1 received RdAck.OK[15] for L2.1(1) from Mem(0) with addr c0/c0, len 4 on lower int.
[15]   L2.1 RdReq.NA.NCa : -1 -1 -1 : {}Send:RdAck.OK{1/1} 0
L2.1 finished [15]
==== Time 133 ====
L1.1 received RdAck.OK[23] for L1.1(1) from L2.1(0) with addr c0/c0, len 4 on lower int.
[23]   L1.1 RdReq.NA.NCa : -1 -1 -1 : {}Send:RdAck.OK{1/1} 0
L1.1 finished [23]
==== Time 134 ====
P1 received RdAck.OK[22] for P1(1) from L1.1(0) with addr c0/c0, len 4

--> R P1 e0 4 noOwn Coh Cache Alloc
--> Q

==== Time 135 ====
==== Time 136 ====
L1.1 received RdReq[23] for L1.1(0) from P1(1) with addr e0/e0, len 4 on upper int.
[24]   L1.1 RdReq : 4 0 0 : {}ReadState(f=1){0/0} 1
[24]   L1.1 read line state @none: 00
[24]   L1.1 RdReq : -1 12 0 : {}WriteState(Line((&37777777777)|22220000)){1/1} {1}Send:RdReq{2/1} 1
[24]   L1.1 write line state @none: 022220000
==== Time 137 ====
L2.1 received RdReq[24] for L2.1(0) from L1.1(1) with addr e0/e0, len 32 on upper int.
[16]   L2.1 RdReq : 4 0 0 : {}ReadState(f=1){0/0} 1
[16]   L2.1 read line state @none: 00
[16]   L2.1 RdReq : -1 12 0 : {}WriteState(Line((&37777777777)|22220000)){1/1} {1}Send:RdReq{2/1} 1
[16]   L2.1 write line state @none: 022220000
==== Time 138 ====
Mem received RdReq[16] for Mem(0) from L2.1(1) with addr e0/e0, len 32
==== Time 139 ====
L2.1 received RdAck.OK[16] for L2.1(1) from Mem(0) with addr e0/e0, len 32 on lower int.
[16]   L2.1 RdReq : -1 14 -1 : {}ChooseVictim{3/1} 1
[16]   L2.1 chose victim @0: 0x60 (01)
[16]   L2.1 RdReq : -1 13 -1 : {}Notify(1,1,0){4/1} 1
[17]   L2.1 None : 1 11 0 : {}Send:InvalReq{0/0} 2
[16]   L2.1 RdReq : -1 13 -1 : 1
==== Time 140 ====
L1.1 received InvalReq[17] for L1.1(1) from L2.1(0) with addr 60/60, len 32 on lower int.
[25]   L1.1 InvalReq : 0 0 4 : {}ReadState(f=1){0/2} 1
[25]   L1.1 read line state @0: 04
[25]   L1.1 InvalReq : 1 17 -1 : {}WriteState(Line((&37777777777)|7777777000)){1/1} {1}CrossCheck{2/1} {}Send:InvalReq{3/0} 2
[25]   L1.1 write line state @0: 07777777004
==== Time 141 ====
P1 received InvalReq[25] for P1(1) from L1.1(0) with addr 60/60, len 32
==== Time 142 ====
L1.1 received InvalAck.OK[25] for L1.1(0) from P1(1) with addr 60/60, len 32 on upper int.
[25]   L1.1 InvalReq : -1 -1 -1 : {2}WriteState(Line((&37777777400)|0)){4/1} {4}WriteState(Line((&30000000777)|0)){5/1} {}Send:InvalAck.OK{6/1} 0
[25]   L1.1 write line state @0: 07777777000
[25]   L1.1 write line state @0: 00
L1.1 finished [25]
==== Time 143 ====
L2.1 received InvalAck.OK[17] for L2.1(0) from L1.1(1) with addr 60/60, len 32 on upper int.
[17]   L2.1 None : -1 19 0 : {}Notify(1,0,0){1/1} 1
[16]   L2.1 RdReq : -1 1 -1 : {}WriteData-2{5/1} {}Notify(1,1,1){6/1} 1
[16]   L2.1 RdReq : -1 1 -1 : 1
[17]   L2.1 None : -1 21 0 : {}Send:CastOutReq{2/1} 1
==== Time 144 ====
Mem received CastOutReq[17] for Mem(0) from L2.1(1) with addr 60/60, len 32
==== Time 145 ====
L2.1 received CastOutAck.OK[17] for L2.1(1) from Mem(0) with addr 60/60, len 32 on lower int.
[17]   L2.1 None : -1 -1 -1 : {}Notify(1,0,0){3/1} 0
[16]   L2.1 RdReq : -1 -1003 -1 : {}WriteState(Tag){7/1} {}WriteState(Line((&37777777400)|1)){8/1} {7,8}None{9/1} {5,9}WriteState(Line((&37755557777)|0)){10/1} {}Send:RdAck.OK{11/1} 0
[16]   L2.1 write line state @0: 022220001
[16]   L2.1 write line state @0: 01
L2.1 finished [16]
[17]   L2.1 None : -1 -1 -1 : 0
L2.1 finished [17]
==== Time 146 ====
L1.1 received RdAck.OK[24] for L1.1(1) from L2.1(0) with addr e0/e0, len 32 on lower int.
[24]   L1.1 RdReq : -1 14 -1 : {}ChooseVictim{3/1} 1
[24]   L1.1 chose victim @0: 0x60 (00)
[24]   L1.1 RdReq : -1 -1003 -1 : {}WriteData-2{4/1} {}WriteState(Tag){5/1} {}WriteState(Line((&37777777400)|4)){6/1} {5,6}None{7/1} {4,7}WriteState(Line((&37755557777)|0)){8/1} {}Send:RdAck.OK{9/1} 0
[24]   L1.1 write line state @0: 022220004
[24]   L1.1 write line state @0: 04
L1.1 finished [24]
==== Time 147 ====
P1 received RdAck.OK[23] for P1(1) from L1.1(0) with addr e0/e0, len 4

--> R P1 100 4 noOwn Coh Cache noAlloc
--> Q

==== Time 148 ====
==== Time 149 ====
L1.1 received RdReq.NA[24] for L1.1(0) from P1(1) with addr 100/100, len 4 on upper int.
[26]   L1.1 RdReq.NA : 4 0 0 : {}ReadState(f=1){0/0} 1
[26]   L1.1 read line state @none: 00
[26]   L1.1 RdReq.NA : -1 6 0 : {}Send:RdReq.NA{1/1} 1
==== Time 150 ====
L2.1 received RdReq.NA[26] for L2.1(0) from L1.1(1) with addr 100/100, len 4 on upper int.
[18]   L2.1 RdReq.NA : 4 0 0 : {}ReadState(f=1){0/0} 1
[18]   L2.1 read line state @none: 00
[18]   L2.1 RdReq.NA : -1 6 0 : {}Send:RdReq.NA{1/1} 1
==== Time 151 ====
Mem received RdReq.NA[18] for Mem(0) from L2.1(1) with addr 100/100, len 4
==== Time 152 ====
L2.1 received RdAck.OK[18] for L2.1(1) from Mem(0) with addr 100/100, len 4 on lower int.
[18]   L2.1 RdReq.NA : -1 -1 -1 : {}Send:RdAck.OK{2/1} 0
L2.1 finished [18]
==== Time 153 ====
L1.1 received RdAck.OK[26] for L1.1(1) from L2.1(0) with addr 100/100, len 4 on lower int.
[26]   L1.1 RdReq.NA : -1 -1 -1 : {}Send:RdAck.OK{2/1} 0
L1.1 finished [26]
==== Time 154 ====
P1 received RdAck.OK[24] for P1(1) from L1.1(0) with addr 100/100, len 4

--> R P1 120 4 Own noCoh noCache Alloc
--> Q

==== Time 155 ====
==== Time 156 ====
L1.1 received RdReq.ToOwn.NCo.NCa[25] for L1.1(0) from P1(1) with addr 120/120, len 4 on upper int.
[27]   L1.1 RdReq.ToOwn.NCo.NCa : -1 6 -1 : {}Send:RdReq.ToOwn.NCo.NCa{0/2} 1
==== Time 157 ====
L2.1 received RdReq.ToOwn.NCo.NCa[27] for L2.1(0) from L1.1(1) with addr 120/120, len 4 on upper int.
[19]   L2.1 RdReq.ToOwn.NCo.NCa : -1 6 0 : {}Send:RdReq.ToOwn.NCo.NCa{0/1} 1
==== Time 158 ====
Mem received RdReq.ToOwn.NCo.NCa[19] for Mem(0) from L2.1(1) with addr 120/120, len 4
==== Time 159 ====
L2.1 received RdAck.OK[19] for L2.1(1) from Mem(0) with addr 120/120, len 4 on lower int.
[19]   L2.1 RdReq.ToOwn.NCo.NCa : -1 -1 -1 : {}Send:RdAck.OK{1/1} 0
L2.1 finished [19]
==== Time 160 ====
L1.1 received RdAck.OK[27] for L1.1(1) from L2.1(0) with addr 120/120, len 4 on lower int.
[27]   L1.1 RdReq.ToOwn.NCo.NCa : -1 -1 -1 : {}Send:RdAck.OK{1/1} 0
L1.1 finished [27]
==== Time 161 ====
P1 received RdAck.OK[25] for P1(1) from L1.1(0) with addr 120/120, len 4

--> R P1 140 4 Own noCoh noCache noAlloc
--> Q

==== Time 162 ====
==== Time 163 ====
L1.1 received RdReq.ToOwn.NCo.NCa[26] for L1.1(0) from P1(1) with addr 140/140, len 4 on upper int.
[28]   L1.1 RdReq.ToOwn.NCo.NCa : -1 6 -1 : {}Send:RdReq.ToOwn.NCo.NCa{0/2} 1
==== Time 164 ====
L2.1 received RdReq.ToOwn.NCo.NCa[28] for L2.1(0) from L1.1(1) with addr 140/140, len 4 on upper int.
[20]   L2.1 RdReq.ToOwn.NCo.NCa : -1 6 0 : {}Send:RdReq.ToOwn.NCo.NCa{0/1} 1
==== Time 165 ====
Mem received RdReq.ToOwn.NCo.NCa[20] for Mem(0) from L2.1(1) with addr 140/140, len 4
==== Time 166 ====
L2.1 received RdAck.OK[20] for L2.1(1) from Mem(0) with addr 140/140, len 4 on lower int.
[20]   L2.1 RdReq.ToOwn.NCo.NCa : -1 -1 -1 : {}Send:RdAck.OK{1/1} 0
L2.1 finished [20]
==== Time 167 ====
L1.1 received RdAck.OK[28] for L1.1(1) from L2.1(0) with addr 140/140, len 4 on lower int.
[28]   L1.1 RdReq.ToOwn.NCo.NCa : -1 -1 -1 : {}Send:RdAck.OK{1/1} 0
L1.1 finished [28]
==== Time 168 ====
P1 received RdAck.OK[26] for P1(1) from L1.1(0) with addr 140/140, len 4

--> R P1 160 4 Own noCoh Cache Alloc
--> Q

==== Time 169 ====
==== Time 170 ====
L1.1 received RdReq.ToOwn.NCo[27] for L1.1(0) from P1(1) with addr 160/160, len 4 on upper int.
[29]   L1.1 RdReq.ToOwn.NCo : 4 0 0 : {}ReadState(f=1){0/0} 1
[29]   L1.1 read line state @none: 00
[29]   L1.1 RdReq.ToOwn.NCo : -1 12 0 : {}WriteState(Line((&37777777777)|22220000)){1/1} {1}Send:RdReq.NCo{2/1} 1
[29]   L1.1 write line state @none: 022220000
==== Time 171 ====
L2.1 received RdReq.NCo[29] for L2.1(0) from L1.1(1) with addr 160/160, len 32 on upper int.
[21]   L2.1 RdReq.NCo : 4 0 0 : {}ReadState(f=1){0/0} 1
[21]   L2.1 read line state @none: 00
[21]   L2.1 RdReq.NCo : -1 12 0 : {}WriteState(Line((&37777777777)|22220000)){1/1} {1}Send:RdReq.NCo{2/1} 1
[21]   L2.1 write line state @none: 022220000
==== Time 172 ====
Mem received RdReq.NCo[21] for Mem(0) from L2.1(1) with addr 160/160, len 32
==== Time 173 ====
L2.1 received RdAck.OK[21] for L2.1(1) from Mem(0) with addr 160/160, len 32 on lower int.
[21]   L2.1 RdReq.NCo : -1 14 -1 : {}ChooseVictim{3/1} 1
[21]   L2.1 chose victim @0: 0xe0 (01)
[21]   L2.1 RdReq.NCo : -1 13 -1 : {}Notify(1,1,0){4/1} 1
[22]   L2.1 None : 1 11 0 : {}Send:InvalReq{0/0} 2
[21]   L2.1 RdReq.NCo : -1 13 -1 : 1
==== Time 174 ====
L1.1 received InvalReq[22] for L1.1(1) from L2.1(0) with addr e0/e0, len 32 on lower int.
[30]   L1.1 InvalReq : 0 0 4 : {}ReadState(f=1){0/2} 1
[30]   L1.1 read line state @0: 04
[30]   L1.1 InvalReq : 1 17 -1 : {}WriteState(Line((&37777777777)|7777777000)){1/1} {1}CrossCheck{2/1} {}Send:InvalReq{3/0} 2
[30]   L1.1 write line state @0: 07777777004
==== Time 175 ====
P1 received InvalReq[30] for P1(1) from L1.1(0) with addr e0/e0, len 32
==== Time 176 ====
L1.1 received InvalAck.OK[30] for L1.1(0) from P1(1) with addr e0/e0, len 32 on upper int.
[30]   L1.1 InvalReq : -1 -1 -1 : {2}WriteState(Line((&37777777400)|0)){4/1} {4}WriteState(Line((&30000000777)|0)){5/1} {}Send:InvalAck.OK{6/1} 0
[30]   L1.1 write line state @0: 07777777000
[30]   L1.1 write line state @0: 00
L1.1 finished [30]
==== Time 177 ====
L2.1 received InvalAck.OK[22] for L2.1(0) from L1.1(1) with addr e0/e0, len 32 on upper int.
[22]   L2.1 None : -1 19 0 : {}Notify(1,0,0){1/1} 1
[21]   L2.1 RdReq.NCo : -1 1 -1 : {}WriteData-2{5/1} {}Notify(1,1,1){6/1} 1
[21]   L2.1 RdReq.NCo : -1 1 -1 : 1
[22]   L2.1 None : -1 21 0 : {}Send:CastOutReq{2/1} 1
==== Time 178 ====
Mem received CastOutReq[22] for Mem(0) from L2.1(1) with addr e0/e0, len 32
==== Time 179 ====
L2.1 received CastOutAck.OK[22] for L2.1(1) from Mem(0) with addr e0/e0, len 32 on lower int.
[22]   L2.1 None : -1 -1 -1 : {}Notify(1,0,0){3/1} 0
[21]   L2.1 RdReq.NCo : -1 -1003 -1 : {}WriteState(Tag){7/1} {}WriteState(Line((&37777777400)|1)){8/1} {7,8}None{9/1} {5,9}WriteState(Line((&37755557777)|0)){10/1} {}Send:RdAck.OK{11/1} 0
[21]   L2.1 write line state @0: 022220001
[21]   L2.1 write line state @0: 01
L2.1 finished [21]
[22]   L2.1 None : -1 -1 -1 : 0
L2.1 finished [22]
==== Time 180 ====
L1.1 received RdAck.OK[29] for L1.1(1) from L2.1(0) with addr 160/160, len 32 on lower int.
[29]   L1.1 RdReq.ToOwn.NCo : -1 14 -1 : {}ChooseVictim{3/1} 1
[29]   L1.1 chose victim @0: 0xe0 (00)
[29]   L1.1 RdReq.ToOwn.NCo : -1 -1003 -1 : {}WriteData-2{4/1} {}WriteState(Tag){5/1} {}WriteState(Line((&37777777400)|4)){6/1} {5,6}None{7/1} {4,7}WriteState(Line((&37755557777)|0)){8/1} {}Send:RdAck.OK{9/1} 0
[29]   L1.1 write line state @0: 022220004
[29]   L1.1 write line state @0: 04
L1.1 finished [29]
==== Time 181 ====
P1 received RdAck.OK[27] for P1(1) from L1.1(0) with addr 160/160, len 4

--> R P1 180 4 Own noCoh Cache noAlloc
--> Q

==== Time 182 ====
==== Time 183 ====
L1.1 received RdReq.ToOwn.NCo.NA[28] for L1.1(0) from P1(1) with addr 180/180, len 4 on upper int.
[31]   L1.1 RdReq.ToOwn.NCo.NA : 4 0 0 : {}ReadState(f=1){0/0} 1
[31]   L1.1 read line state @none: 00
[31]   L1.1 RdReq.ToOwn.NCo.NA : -1 6 -1 : {}Send:RdReq.ToOwn.NCo.NA{1/2} 1
==== Time 184 ====
L2.1 received RdReq.ToOwn.NCo.NA[31] for L2.1(0) from L1.1(1) with addr 180/180, len 4 on upper int.
[23]   L2.1 RdReq.ToOwn.NCo.NA : 4 0 0 : {}ReadState(f=1){0/0} 1
[23]   L2.1 read line state @none: 00
[23]   L2.1 RdReq.ToOwn.NCo.NA : -1 6 0 : {}Send:RdReq.ToOwn.NCo.NA{1/1} 1
==== Time 185 ====
Mem received RdReq.ToOwn.NCo.NA[23] for Mem(0) from L2.1(1) with addr 180/180, len 4
==== Time 186 ====
L2.1 received RdAck.OK[23] for L2.1(1) from Mem(0) with addr 180/180, len 4 on lower int.
[23]   L2.1 RdReq.ToOwn.NCo.NA : -1 -1 -1 : {}Send:RdAck.OK{2/1} 0
L2.1 finished [23]
==== Time 187 ====
L1.1 received RdAck.OK[31] for L1.1(1) from L2.1(0) with addr 180/180, len 4 on lower int.
[31]   L1.1 RdReq.ToOwn.NCo.NA : -1 -1 -1 : {}Send:RdAck.OK{2/1} 0
L1.1 finished [31]
==== Time 188 ====
P1 received RdAck.OK[28] for P1(1) from L1.1(0) with addr 180/180, len 4

--> R P1 1a0 4 Own Coh noCache Alloc
--> Q

==== Time 189 ====
==== Time 190 ====
L1.1 received RdReq.ToOwn.NCa[29] for L1.1(0) from P1(1) with addr 1a0/1a0, len 4 on upper int.
[32]   L1.1 RdReq.ToOwn.NCa : -1 6 -1 : {}Send:RdReq.ToOwn.NCa{0/2} 1
==== Time 191 ====
L2.1 received RdReq.ToOwn.NCa[32] for L2.1(0) from L1.1(1) with addr 1a0/1a0, len 4 on upper int.
[24]   L2.1 RdReq.ToOwn.NCa : -1 6 0 : {}Send:RdReq.ToOwn.NCa{0/1} 1
==== Time 192 ====
Mem received RdReq.ToOwn.NCa[24] for Mem(0) from L2.1(1) with addr 1a0/1a0, len 4
==== Time 193 ====
L2.1 received RdAck.OK[24] for L2.1(1) from Mem(0) with addr 1a0/1a0, len 4 on lower int.
[24]   L2.1 RdReq.ToOwn.NCa : -1 -1 -1 : {}Send:RdAck.OK{1/1} 0
L2.1 finished [24]
==== Time 194 ====
L1.1 received RdAck.OK[32] for L1.1(1) from L2.1(0) with addr 1a0/1a0, len 4 on lower int.
[32]   L1.1 RdReq.ToOwn.NCa : -1 -1 -1 : {}Send:RdAck.OK{1/1} 0
L1.1 finished [32]
==== Time 195 ====
P1 received RdAck.OK[29] for P1(1) from L1.1(0) with addr 1a0/1a0, len 4

--> R P1 1c0 4 Own Coh noCache noAlloc
--> Q

==== Time 196 ====
==== Time 197 ====
L1.1 received RdReq.ToOwn.NA.NCa[30] for L1.1(0) from P1(1) with addr 1c0/1c0, len 4 on upper int.
[33]   L1.1 RdReq.ToOwn.NA.NCa : -1 6 -1 : {}Send:RdReq.ToOwn.NA.NCa{0/2} 1
==== Time 198 ====
L2.1 received RdReq.ToOwn.NA.NCa[33] for L2.1(0) from L1.1(1) with addr 1c0/1c0, len 4 on upper int.
[25]   L2.1 RdReq.ToOwn.NA.NCa : -1 6 0 : {}Send:RdReq.ToOwn.NA.NCa{0/1} 1
==== Time 199 ====
Mem received RdReq.ToOwn.NA.NCa[25] for Mem(0) from L2.1(1) with addr 1c0/1c0, len 4
==== Time 200 ====
L2.1 received RdAck.OK[25] for L2.1(1) from Mem(0) with addr 1c0/1c0, len 4 on lower int.
[25]   L2.1 RdReq.ToOwn.NA.NCa : -1 -1 -1 : {}Send:RdAck.OK{1/1} 0
L2.1 finished [25]
==== Time 201 ====
L1.1 received RdAck.OK[33] for L1.1(1) from L2.1(0) with addr 1c0/1c0, len 4 on lower int.
[33]   L1.1 RdReq.ToOwn.NA.NCa : -1 -1 -1 : {}Send:RdAck.OK{1/1} 0
L1.1 finished [33]
==== Time 202 ====
P1 received RdAck.OK[30] for P1(1) from L1.1(0) with addr 1c0/1c0, len 4

--> R P1 1e0 4 Own Coh Cache Alloc
--> Q

==== Time 203 ====
==== Time 204 ====
L1.1 received RdReq.ToOwn[31] for L1.1(0) from P1(1) with addr 1e0/1e0, len 4 on upper int.
[34]   L1.1 RdReq.ToOwn : 4 0 0 : {}ReadState(f=1){0/0} 1
[34]   L1.1 read line state @none: 00
[34]   L1.1 RdReq.ToOwn : -1 12 0 : {}WriteState(Line((&37777777777)|22220000)){1/1} {1}Send:RdReq{2/1} 1
[34]   L1.1 write line state @none: 022220000
==== Time 205 ====
L2.1 received RdReq[34] for L2.1(0) from L1.1(1) with addr 1e0/1e0, len 32 on upper int.
[26]   L2.1 RdReq : 4 0 0 : {}ReadState(f=1){0/0} 1
[26]   L2.1 read line state @none: 00
[26]   L2.1 RdReq : -1 12 0 : {}WriteState(Line((&37777777777)|22220000)){1/1} {1}Send:RdReq{2/1} 1
[26]   L2.1 write line state @none: 022220000
==== Time 206 ====
Mem received RdReq[26] for Mem(0) from L2.1(1) with addr 1e0/1e0, len 32
==== Time 207 ====
L2.1 received RdAck.OK[26] for L2.1(1) from Mem(0) with addr 1e0/1e0, len 32 on lower int.
[26]   L2.1 RdReq : -1 14 -1 : {}ChooseVictim{3/1} 1
[26]   L2.1 chose victim @0: 0x160 (01)
[26]   L2.1 RdReq : -1 13 -1 : {}Notify(1,1,0){4/1} 1
[27]   L2.1 None : 1 11 0 : {}Send:InvalReq{0/0} 2
[26]   L2.1 RdReq : -1 13 -1 : 1
==== Time 208 ====
L1.1 received InvalReq[27] for L1.1(1) from L2.1(0) with addr 160/160, len 32 on lower int.
[35]   L1.1 InvalReq : 0 0 4 : {}ReadState(f=1){0/2} 1
[35]   L1.1 read line state @0: 04
[35]   L1.1 InvalReq : 1 17 -1 : {}WriteState(Line((&37777777777)|7777777000)){1/1} {1}CrossCheck{2/1} {}Send:InvalReq{3/0} 2
[35]   L1.1 write line state @0: 07777777004
==== Time 209 ====
P1 received InvalReq[35] for P1(1) from L1.1(0) with addr 160/160, len 32
==== Time 210 ====
L1.1 received InvalAck.OK[35] for L1.1(0) from P1(1) with addr 160/160, len 32 on upper int.
[35]   L1.1 InvalReq : -1 -1 -1 : {2}WriteState(Line((&37777777400)|0)){4/1} {4}WriteState(Line((&30000000777)|0)){5/1} {}Send:InvalAck.OK{6/1} 0
[35]   L1.1 write line state @0: 07777777000
[35]   L1.1 write line state @0: 00
L1.1 finished [35]
==== Time 211 ====
L2.1 received InvalAck.OK[27] for L2.1(0) from L1.1(1) with addr 160/160, len 32 on upper int.
[27]   L2.1 None : -1 19 0 : {}Notify(1,0,0){1/1} 1
[26]   L2.1 RdReq : -1 1 -1 : {}WriteData-2{5/1} {}Notify(1,1,1){6/1} 1
[26]   L2.1 RdReq : -1 1 -1 : 1
[27]   L2.1 None : -1 21 0 : {}Send:CastOutReq{2/1} 1
==== Time 212 ====
Mem received CastOutReq[27] for Mem(0) from L2.1(1) with addr 160/160, len 32
==== Time 213 ====
L2.1 received CastOutAck.OK[27] for L2.1(1) from Mem(0) with addr 160/160, len 32 on lower int.
[27]   L2.1 None : -1 -1 -1 : {}Notify(1,0,0){3/1} 0
[26]   L2.1 RdReq : -1 -1003 -1 : {}WriteState(Tag){7/1} {}WriteState(Line((&37777777400)|1)){8/1} {7,8}None{9/1} {5,9}WriteState(Line((&37755557777)|0)){10/1} {}Send:RdAck.OK{11/1} 0
[26]   L2.1 write line state @0: 022220001
[26]   L2.1 write line state @0: 01
L2.1 finished [26]
[27]   L2.1 None : -1 -1 -1 : 0
L2.1 finished [27]
==== Time 214 ====
L1.1 received RdAck.OK[34] for L1.1(1) from L2.1(0) with addr 1e0/1e0, len 32 on lower int.
[34]   L1.1 RdReq.ToOwn : -1 14 -1 : {}ChooseVictim{3/1} 1
[34]   L1.1 chose victim @0: 0x160 (00)
[34]   L1.1 RdReq.ToOwn : -1 -1003 -1 : {}WriteData-2{4/1} {}WriteState(Tag){5/1} {}WriteState(Line((&37777777400)|4)){6/1} {5,6}None{7/1} {4,7}WriteState(Line((&37755557777)|0)){8/1} {}Send:RdAck.OK{9/1} 0
[34]   L1.1 write line state @0: 022220004
[34]   L1.1 write line state @0: 04
L1.1 finished [34]
==== Time 215 ====
P1 received RdAck.OK[31] for P1(1) from L1.1(0) with addr 1e0/1e0, len 4

--> R P1 200 4 Own Coh Cache noAlloc
--> Q

==== Time 216 ====
==== Time 217 ====
L1.1 received RdReq.ToOwn.NA[32] for L1.1(0) from P1(1) with addr 200/200, len 4 on upper int.
[36]   L1.1 RdReq.ToOwn.NA : 4 0 0 : {}ReadState(f=1){0/0} 1
[36]   L1.1 read line state @none: 00
[36]   L1.1 RdReq.ToOwn.NA : -1 6 -1 : {}Send:RdReq.ToOwn.NA{1/2} 1
==== Time 218 ====
L2.1 received RdReq.ToOwn.NA[36] for L2.1(0) from L1.1(1) with addr 200/200, len 4 on upper int.
[28]   L2.1 RdReq.ToOwn.NA : 4 0 0 : {}ReadState(f=1){0/0} 1
[28]   L2.1 read line state @none: 00
[28]   L2.1 RdReq.ToOwn.NA : -1 6 0 : {}Send:RdReq.ToOwn.NA{1/1} 1
==== Time 219 ====
Mem received RdReq.ToOwn.NA[28] for Mem(0) from L2.1(1) with addr 200/200, len 4
==== Time 220 ====
L2.1 received RdAck.OK[28] for L2.1(1) from Mem(0) with addr 200/200, len 4 on lower int.
[28]   L2.1 RdReq.ToOwn.NA : -1 -1 -1 : {}Send:RdAck.OK{2/1} 0
L2.1 finished [28]
==== Time 221 ====
L1.1 received RdAck.OK[36] for L1.1(1) from L2.1(0) with addr 200/200, len 4 on lower int.
[36]   L1.1 RdReq.ToOwn.NA : -1 -1 -1 : {}Send:RdAck.OK{2/1} 0
L1.1 finished [36]
==== Time 222 ====
P1 received RdAck.OK[32] for P1(1) from L1.1(0) with addr 200/200, len 4
L1.1:	Read Miss Rate = 9/17 (52.9412%)	Write Miss Rate = 0/0 (nan%)
L2.1:	Read Miss Rate = 9/9 (100%)	Write Miss Rate = 0/0 (nan%)
Mem:	Reads = 25	Writes = 0	Writebacks = 0
