0/0: porti=0, Ack 030
0/0: porti=1, Ack 030
0/0: porti=2, Ack 030
0/0: porti=3, Ack 030
0/0: porti=4, Ack 030
0/0: porti=5, Ack 030
0/0: porti=6, Ack 030
0/0: porti=7, Ack 030
0/0: porti=8, Ack 030
0/0: porti=9, Ack 030
0/0: porti=9, Sent data 0x9
0/0: porti=9, Enable 0300
0/0: porti=8, Sent data 0x8
0/0: porti=8, Enable 0300
0/0: porti=7, Sent data 0x7
0/0: porti=7, Enable 0300
0/0: porti=6, Sent data 0x6
0/0: porti=6, Enable 0300
0/0: porti=5, Sent data 0x5
0/0: porti=5, Enable 0300
0/0: porti=4, Sent data 0x4
0/0: porti=4, Enable 0300
0/0: porti=3, Sent data 0x3
0/0: porti=3, Enable 0300
0/0: porti=2, Sent data 0x2
0/0: porti=2, Enable 0300
0/0: porti=1, Sent data 0x1
0/0: porti=1, Enable 0300
0/0: porti=0, Sent data 0x0
0/0: porti=0, Enable 0300
1/0: porti=0, Ack 030
1/0: porti=1, Ack 030
1/0: porti=2, Ack 030
1/0: porti=3, Ack 030
1/0: porti=4, Ack 030
1/0: porti=5, Ack 030
1/0: porti=6, Ack 030
1/0: porti=7, Ack 030
1/0: porti=8, Ack 030
1/0: porti=9, Ack 030
1/0: porti=9, Sent data 0x9
1/0: porti=9, Enable 0300
1/0: porti=8, Sent data 0x8
1/0: porti=8, Enable 0300
1/0: porti=7, Sent data 0x7
1/0: porti=7, Enable 0300
1/0: porti=6, Sent data 0x6
1/0: porti=6, Enable 0300
1/0: porti=5, Sent data 0x5
1/0: porti=5, Enable 0300
1/0: porti=4, Sent data 0x4
1/0: porti=4, Enable 0300
1/0: porti=3, Sent data 0x3
1/0: porti=3, Enable 0300
1/0: porti=2, Sent data 0x2
1/0: porti=2, Enable 0300
1/0: porti=1, Sent data 0x1
1/0: porti=1, Enable 0300
1/0: porti=0, Sent data 0x0
1/0: porti=0, Enable 0300
2/0: porti=0, Ack 030
2/0: porti=1, Ack 030
2/0: porti=2, Ack 030
2/0: porti=3, Ack 030
2/0: porti=4, Ack 030
2/0: porti=5, Ack 030
2/0: porti=6, Ack 030
2/0: porti=7, Ack 030
2/0: porti=8, Ack 030
2/0: porti=9, Ack 030
2/0: porti=9, Sent data 0x9
2/0: porti=9, Enable 0300
2/0: porti=8, Sent data 0x8
2/0: porti=8, Enable 0300
2/0: porti=7, Sent data 0x7
2/0: porti=7, Enable 0300
2/0: porti=6, Sent data 0x6
2/0: porti=6, Enable 0300
2/0: porti=5, Sent data 0x5
2/0: porti=5, Enable 0300
2/0: porti=4, Sent data 0x4
2/0: porti=4, Enable 0300
2/0: porti=3, Sent data 0x3
2/0: porti=3, Enable 0300
2/0: porti=2, Sent data 0x2
2/0: porti=2, Enable 0300
2/0: porti=1, Sent data 0x1
2/0: porti=1, Enable 0300
2/0: porti=0, Sent data 0x0
2/0: porti=0, Enable 0300
3/0: porti=0, Ack 030
3/0: porti=1, Ack 030
3/0: porti=2, Ack 030
3/0: porti=3, Ack 030
3/0: porti=4, Ack 030
3/0: porti=5, Ack 030
3/0: porti=6, Ack 030
3/0: porti=7, Ack 030
3/0: porti=8, Ack 030
3/0: porti=9, Ack 030
3/0: porti=9, Sent data 0x9
3/0: porti=9, Enable 0300
3/0: porti=8, Sent data 0x8
3/0: porti=8, Enable 0300
3/0: porti=7, Sent data 0x7
3/0: porti=7, Enable 0300
3/0: porti=6, Sent data 0x6
3/0: porti=6, Enable 0300
3/0: porti=5, Sent data 0x5
3/0: porti=5, Enable 0300
3/0: porti=4, Sent data 0x4
3/0: porti=4, Enable 0300
3/0: porti=3, Sent data 0x3
3/0: porti=3, Enable 0300
3/0: porti=2, Sent data 0x2
3/0: porti=2, Enable 0300
3/0: porti=1, Sent data 0x1
3/0: porti=1, Enable 0300
3/0: porti=0, Sent data 0x0
3/0: porti=0, Enable 0300
