File ID: testFile
  Global parm: U=1000000
  Global parm: V=1000
  Global parm: W=4000
  Global parm: long=1234567890123456789012345678901212345678901234567890123456789012123456789012345678901234567890121234567890123456789012345678901212345678901234567890123456789012
  TOC entry #0: emulator
    physreg=256
    doOS=TRUE
  TOC entry #1: L1D
    assoc=4
    numsets=256
    blocksize=32
  Found TOC entry for L1D at 1
    assoc=4
    numsets=256
    blocksize=32
Checkpoint 0 compressed=N
  Segment emulator
    [ UNIVERSAL 2 ] PRIMITIVE length 9 value = 8000000000000000 -9223372036854775808
    [ UNIVERSAL 2 ] PRIMITIVE length 8 value = 4000000000000000 4611686018427387904
    [ UNIVERSAL 2 ] PRIMITIVE length 1 value = 1 1
    [ UNIVERSAL 2 ] PRIMITIVE length 1 value = 40 64
    [ UNIVERSAL 2 ] PRIMITIVE length 2 value = 80 128
    [ UNIVERSAL 2 ] PRIMITIVE length 2 value = 100 256
  Segment L1D
    [ UNIVERSAL 16 ] CONSTRUCTED INDEFINITE 
      [ UNIVERSAL 2 ] PRIMITIVE length 1 value = ffffffffffffffff -1
      [ UNIVERSAL 2 ] PRIMITIVE length 1 value = ffffffffffffffc0 -64
      [ UNIVERSAL 2 ] PRIMITIVE length 1 value = ffffffffffffff80 -128
      [ UNIVERSAL 2 ] PRIMITIVE length 2 value = ffffffffffffff00 -256
Checkpoint 1 compressed=N
  Segment emulator
    [ UNIVERSAL 16 ] CONSTRUCTED INDEFINITE 
      [ UNIVERSAL 1 ] PRIMITIVE length 1 value = TRUE
      [ UNIVERSAL 1 ] PRIMITIVE length 1 value = FALSE
      [ UNIVERSAL 7 ] PRIMITIVE length 8 value = myobject
      [ UNIVERSAL 6 ] PRIMITIVE length 3 value = 2.100.3
      [ UNIVERSAL 13 ] PRIMITIVE length 4 value = 8571.3.2
  Segment L1D
