#FIG 3.2
Portrait
Center
Metric
A4      
100.00
Single
-2
1200 2
0 32 #ffffff
5 1 0 3 0 0 0 0 -1 31.496 0 1 0 0 3285.000 3998.043 4725 1620 3292 1218 1845 1620
5 1 0 3 0 0 0 0 -1 31.496 0 1 0 0 2920.500 2722.500 855 2340 855 3105 1080 3735
5 1 0 3 0 0 0 0 -1 31.496 0 1 0 0 3909.079 2980.658 5535 3690 5670 3195 5580 2385
5 1 0 3 0 0 0 0 -1 31.496 0 0 0 0 3400.000 2240.000 4455 4590 3330 4815 2250 4545
6 4725 945 6480 2385
1 1 0 3 32 32 0 0 20 31.496 1 0.0000 5607 1659 841 690 0 0 0 0
1 1 0 3 0 -1 0 0 -1 31.496 1 0.0000 5607 1659 841 690 0 0 0 0
4 1 0 0 0 0 23 0.0000 4 240 1245 5632 1752  warmup\001
-6
6 135 900 1890 2385
1 1 0 3 32 32 0 0 20 31.496 1 0.0000 1012 1635 841 690 0 0 0 0
1 1 0 3 0 -1 0 0 -1 31.496 1 0.0000 1012 1635 841 690 0 0 0 0
4 1 0 0 0 0 23 0.0000 4 225 1185 1002 1729  forward\001
-6
6 585 3600 2340 5085
1 1 0 3 32 32 0 0 20 31.496 1 0.0000 1462 4335 841 690 450 2700 450 2700
1 1 0 3 0 -1 0 0 -1 31.496 1 0.0000 1462 4335 841 690 450 2700 450 2700
4 1 0 0 0 0 23 0.0000 4 240 1275 1452 4429  recovery\001
-6
6 4320 3600 6075 5040
6 4701 4204 5691 4429
4 1 0 0 0 0 23 0.0000 4 225 990 5196 4429  collect\001
-6
1 1 0 3 0 -1 0 0 -1 31.496 1 0.0000 5194 4324 841 690 1890 -630 1890 -630
-6
2 1 0 3 0 0 0 0 -1 31.496 0 0 0 0 0 3
	 4346 1609 4765 1659 4553 1293
2 1 0 3 0 0 0 0 -1 31.496 0 0 0 0 0 3
	 945 2655 855 2340 630 2655
2 1 0 3 0 0 0 0 -1 31.496 0 0 0 0 0 3
	 5490 3375 5535 3690 5805 3510
2 1 0 3 0 0 0 0 -1 31.496 0 0 0 0 0 3
	 2520 4455 2250 4545 2385 4815
4 1 0 0 0 12 23 0.0000 4 255 1470 3295 992 P-(W+L)\001
4 1 0 0 0 12 23 0.0000 4 285 2100 3318 2574 P = period\001
4 1 0 0 0 12 23 0.0000 4 255 2100 3318 2952 W = warmup\001
4 1 0 0 0 12 23 0.0000 4 270 2100 3318 3330 L = length\001
4 1 0 0 0 12 23 0.0000 4 195 210 5895 3195 W\001
4 1 0 0 0 12 23 0.0000 4 195 210 3465 5175 L\001
